Introductory R
…
Now, we can summarize temperature by depth in each month across
years:

otsego_summary <- summarize(otsego, mean_temp = mean(temp), sd_temp = sd(temp))

You’ll get a message here to let you know that summarise
is using the grouping structure that you had previously specified, and
it is sorting by month.

If you print your new object, you’ll see that it has four columns:
month, depth, mean_temp, and
sd_temp.

print(otsego_summary)
# A tibble: 284 × 4
# Groups:   month [12]
   month depth mean_temp sd_temp
   <int> <dbl>     <dbl>   <dbl>
 1     1   0        0.93  NA    
 2     1   0.1      1.79   1.36 
 3     1   2        2.10   1.07 
 4     1   4        2.12   0.988
 5     1   6        2.25   0.962
 6     1   8        2.37   0.908
 7     1  10        2.39   0.880
 8     1  12        2.5    0.860
 9     1  14        2.52   0.813
10     1  16        2.60   0.813
# … with 274 more rows
…
